…
yes

contracts 

## # A tibble: 104 x 33
##     page cite  notes  year forplot transaction transaction2 p1    ptype1
##    <dbl> <chr> <chr> <dbl>   <dbl> <chr>       <lgl>        <chr> <chr> 
##  1   328 Mill… <NA>   1825       1 Family      NA           Mills Unkno…
##  2   227 Kirk… <NA>   1845       1 Property    NA           Anti… Woman 
##  3   903 Hadl… <NA>   1854       1 Business    NA           Hadl… Unkno…
##  4   429 Thom… <NA>   1885       1 Business    NA           J. H… Man   
##  5   102 Hame… <NA>   1891       1 Family      NA           Hamer Woman 
##  6   773 Alas… <NA>   1902       1 Employee    NA           Alas… Busin…
##  7   482 Wood… <NA>   1917       1 Business    NA           Wood  Man   
##  8   115 Doug… <NA>   1919       1 Family      NA           Doug… Man   
##  9   829 Jaco… <NA>   1921       1 Consumer    NA           Jaco… Busin…
## 10    18 Alle… <NA>   1923       1 Business    NA           Allen Man   
## # … with 94 more rows, and 24 more variables: pspouse1 <chr>, p2 <chr>,
## #   ptype2 <chr>, pspouse2 <chr>, p3 <chr>, ptype3 <chr>, pspouse3 <chr>,
## #   p4 <chr>, ptype4 <chr>, pspouse4 <chr>, d1 <chr>, dtype1 <chr>,
## #   dspouse1 <chr>, d2 <chr>, dtype2 <chr>, dspouse2 <chr>, d3 <chr>,
## #   dtype3 <chr>, dspouse3 <chr>, d4 <chr>, dtype4 <chr>, dspouse4 <lgl>,
## #   simplecite <chr>, n_parties <int>
